01.31
01.30
01.31
01.32
01.29
01.31
01.30
01.31
01.30
01.31
01.31
01.29
01.30
01.29
01.31
01.30
01.31
01.29
01.31
01.31
01.31
01.30
01.31
01.29
01.31
01.31
01.30
01.30
01.32
01.32
01.29
01.31
01.30
01.31
01.32
01.31
01.31
01.30
01.31
01.32
01.34
01.30
01.32
01.29
01.31
01.31
01.30
01.31
01.32
01.30
01.32
01.30
01.31
01.31
01.31
01.29
01.30
01.31
01.32
01.30
01.30
01.30
01.31
01.31
01.30
01.29
01.31
01.30
01.29
01.30
01.32
01.31
01.29
01.32
01.29
01.29
01.29
01.31
01.31
01.32
01.32
01.31
01.29
01.29
01.32
01.33
01.30
01.31
01.31
01.29
01.29
01.32
01.29
01.28
01.29
01.29
01.31
01.31
01.29
01.30
